…
Ok, doing stuff by hand is great, let’s make it even greater.

``` r
df_cv = df_nonlin |> 
  crossv_mc(n = 100) |> 
  mutate(
    train = map(train, as_tibble),
    test = map(test, as_tibble)
  )

df_cv |> pull(train) |> nth(2)
```

    ## # A tibble: 79 × 3
    ##       id       x      y
    ##    <int>   <dbl>  <dbl>
    ##  1     1 0.825   -2.02 
    ##  2     2 0.148    0.945
    ##  3     3 0.228    1.14 
    ##  4     4 0.907   -3.20 
    ##  5     6 0.0619   0.694
    ##  6     7 0.0196   0.756
    ##  7     8 0.259    0.992
    ##  8     9 0.838   -1.57 
    ##  9    10 0.208    0.728
    ## 10    11 0.00525  0.101
    ## # ℹ 69 more rows
…
